<?xml version="1.0" encoding="UTF-8"?>
<glyph name="X" format="1">
  <advance width="500"/>
  <unicode hex="0058"/>
  <outline>
  </outline>
  <lib>
    <dict>
      <key>com.typemytype.robofont.layerData</key>
      <dict>
      </dict>
    </dict>
  </lib>
</glyph>
